{
  "images" : [
    {
      "idiom" : "universal",
      "filename" : "320-x-44.png",
      "scale" : "1x"
    },
    {
      "idiom" : "universal",
      "filename" : "960-x-132.png",
      "scale" : "2x"
    },
    {
      "idiom" : "universal",
      "filename" : "1242-x-132.png",
      "scale" : "3x"
    }
  ],
  "info" : {
    "version" : 1,
    "author" : "xcode"
  }
}