{
  "images" : [
    {
      "idiom" : "universal",
      "scale" : "1x",
      "filename" : "submit-x.jpg"
    },
    {
      "idiom" : "universal",
      "scale" : "2x",
      "filename" : "submit-2x.jpg"
    },
    {
      "idiom" : "universal",
      "scale" : "3x",
      "filename" : "submit-3x.jpg"
    }
  ],
  "info" : {
    "version" : 1,
    "author" : "xcode"
  }
}