{
  "images" : [
    {
      "idiom" : "universal",
      "scale" : "1x",
      "filename" : "home-subtitle-bg-1.png"
    },
    {
      "idiom" : "universal",
      "scale" : "2x",
      "filename" : "home-subtitle-bg-2x.png"
    },
    {
      "idiom" : "universal",
      "scale" : "3x",
      "filename" : "home-subtitle-bg-3x.png"
    }
  ],
  "info" : {
    "version" : 1,
    "author" : "xcode"
  }
}